<?xml version="1.0" encoding="UTF-8" standalone="no"?>
<!-- Created with Inkscape (http://www.inkscape.org/) -->

<svg
   xmlns:dc="http://purl.org/dc/elements/1.1/"
   xmlns:cc="http://creativecommons.org/ns#"
   xmlns:rdf="http://www.w3.org/1999/02/22-rdf-syntax-ns#"
   xmlns:svg="http://www.w3.org/2000/svg"
   xmlns="http://www.w3.org/2000/svg"
   xmlns:xlink="http://www.w3.org/1999/xlink"
   xmlns:sodipodi="http://sodipodi.sourceforge.net/DTD/sodipodi-0.dtd"
   xmlns:inkscape="http://www.inkscape.org/namespaces/inkscape"
   width="14.111112mm"
   height="14.120158mm"
   viewBox="0 0 50.000002 50.032056"
   id="svg4110"
   version="1.1"
   inkscape:version="0.91 r13725"
   sodipodi:docname="sad.svg">
  <defs
     id="defs4112">
    <linearGradient
       inkscape:collect="always"
       xlink:href="#linearGradient4437-9"
       id="linearGradient3517"
       gradientUnits="userSpaceOnUse"
       x1="498.17999"
       y1="518.04999"
       x2="504.51999"
       y2="422.34" />
    <linearGradient
       id="linearGradient4437-9">
      <stop
         id="stop4439-27"
         style="stop-color:#ffff00"
         offset="0" />
      <stop
         id="stop4441-5"
         style="stop-color:#ffff00;stop-opacity:0"
         offset="1" />
    </linearGradient>
    <filter
       style="color-interpolation-filters:sRGB"
       id="filter4946-8">
      <feGaussianBlur
         id="feGaussianBlur4948-00"
         stdDeviation="6.8255148" />
    </filter>
    <filter
       style="color-interpolation-filters:sRGB"
       id="filter4139">
      <feGaussianBlur
         id="feGaussianBlur4141"
         stdDeviation="6.8255148" />
    </filter>
    <filter
       style="color-interpolation-filters:sRGB"
       id="filter4150">
      <feGaussianBlur
         id="feGaussianBlur4152"
         stdDeviation="6.8255148" />
    </filter>
    <filter
       style="color-interpolation-filters:sRGB"
       id="filter4161">
      <feGaussianBlur
         id="feGaussianBlur4163"
         stdDeviation="6.8255148" />
    </filter>
    <filter
       style="color-interpolation-filters:sRGB"
       id="filter4363">
      <feGaussianBlur
         id="feGaussianBlur4365"
         stdDeviation="5.5483248" />
    </filter>
    <radialGradient
       inkscape:collect="always"
       xlink:href="#linearGradient4437-9"
       id="radialGradient3525"
       gradientUnits="userSpaceOnUse"
       gradientTransform="matrix(0.64399,1.2691,-1.3033,0.66139,827.1,-583.91)"
       cx="559.28998"
       cy="467.44"
       r="112.82" />
    <radialGradient
       id="radialGradient12406"
       xlink:href="#linearGradient4437-9"
       gradientUnits="userSpaceOnUse"
       cy="467.44"
       cx="559.28998"
       gradientTransform="matrix(0.64399,1.2691,-1.3033,0.66139,827.1,-583.91)"
       r="112.82" />
    <filter
       style="color-interpolation-filters:sRGB"
       id="filter4188">
      <feGaussianBlur
         id="feGaussianBlur4190"
         stdDeviation="5.5483248" />
    </filter>
    <radialGradient
       id="radialGradient5604"
       xlink:href="#linearGradient4498"
       gradientUnits="userSpaceOnUse"
       cy="402.79001"
       cx="463.95999"
       gradientTransform="matrix(2.6674,0.82907,-1.0502,2.4599,-316.63,-861.26)"
       r="25.4" />
    <linearGradient
       id="linearGradient4498">
      <stop
         id="stop4500"
         style="stop-color:#ffffff"
         offset="0" />
      <stop
         id="stop4502"
         style="stop-color:#ffffff;stop-opacity:0"
         offset="1" />
    </linearGradient>
    <linearGradient
       inkscape:collect="always"
       xlink:href="#linearGradient4498"
       id="linearGradient3527"
       gradientUnits="userSpaceOnUse"
       x1="447.07001"
       y1="363.17999"
       x2="468.94"
       y2="415.01999" />
    <linearGradient
       id="linearGradient5608"
       y2="357.70001"
       xlink:href="#linearGradient4557"
       gradientUnits="userSpaceOnUse"
       x2="472.82999"
       gradientTransform="matrix(-1.1853,0,0,-0.97611,1122.4,908.79)"
       y1="416.01001"
       x1="467.76001" />
    <linearGradient
       id="linearGradient4557">
      <stop
         id="stop4559"
         style="stop-color:#ffcc00"
         offset="0" />
      <stop
         id="stop4561"
         style="stop-color:#e9a71c;stop-opacity:0"
         offset="1" />
    </linearGradient>
    <radialGradient
       id="radialGradient5610"
       xlink:href="#linearGradient4498"
       gradientUnits="userSpaceOnUse"
       cy="402.79001"
       cx="463.95999"
       gradientTransform="matrix(2.6674,0.83617,-1.0502,2.481,-249.41,-873.29)"
       r="25.4" />
    <linearGradient
       id="linearGradient5614"
       y2="374.17001"
       xlink:href="#linearGradient4498"
       gradientUnits="userSpaceOnUse"
       x2="457.62"
       gradientTransform="translate(31.952,105.98)"
       y1="330.44"
       x1="463.64001" />
    <filter
       style="color-interpolation-filters:sRGB"
       id="filter4798">
      <feGaussianBlur
         id="feGaussianBlur4800"
         stdDeviation="0.27037152" />
    </filter>
    <linearGradient
       id="linearGradient5263"
       y2="374.17001"
       xlink:href="#linearGradient4498"
       gradientUnits="userSpaceOnUse"
       x2="457.62"
       gradientTransform="translate(-0.31691,-1.5846)"
       y1="330.44"
       x1="463.64001" />
    <filter
       style="color-interpolation-filters:sRGB"
       id="filter4237">
      <feGaussianBlur
         id="feGaussianBlur4239"
         stdDeviation="0.27037152" />
    </filter>
    <linearGradient
       inkscape:collect="always"
       xlink:href="#linearGradient5438"
       id="linearGradient3529"
       gradientUnits="userSpaceOnUse"
       gradientTransform="matrix(1.0814,0,0,0.93075,-41.402,32.599)"
       x1="502.41"
       y1="461.66"
       x2="500.62"
       y2="508.72" />
    <linearGradient
       id="linearGradient5438">
      <stop
         id="stop5440"
         style="stop-color:#f9e608"
         offset="0" />
      <stop
         id="stop5442"
         style="stop-color:#f9e608;stop-opacity:0"
         offset="1" />
    </linearGradient>
    <linearGradient
       inkscape:collect="always"
       xlink:href="#linearGradient4437-9"
       id="linearGradient3531"
       gradientUnits="userSpaceOnUse"
       x1="505.10001"
       y1="435.44"
       x2="501.06"
       y2="500.88" />
    <linearGradient
       id="linearGradient12410"
       y2="159.94"
       xlink:href="#linearGradient4498"
       gradientUnits="userSpaceOnUse"
       x2="517.20001"
       y1="69.941002"
       x1="524.79999" />
    <linearGradient
       inkscape:collect="always"
       xlink:href="#linearGradient4437-9"
       id="linearGradient4517"
       gradientUnits="userSpaceOnUse"
       x1="498.17999"
       y1="518.04999"
       x2="504.51999"
       y2="422.34" />
    <linearGradient
       inkscape:collect="always"
       xlink:href="#linearGradient4437-9"
       id="linearGradient4519"
       gradientUnits="userSpaceOnUse"
       x1="498.17999"
       y1="518.04999"
       x2="504.51999"
       y2="422.34" />
    <linearGradient
       inkscape:collect="always"
       xlink:href="#linearGradient4437-9"
       id="linearGradient4521"
       gradientUnits="userSpaceOnUse"
       x1="498.17999"
       y1="518.04999"
       x2="504.51999"
       y2="422.34" />
    <linearGradient
       inkscape:collect="always"
       xlink:href="#linearGradient4437-9"
       id="linearGradient4523"
       gradientUnits="userSpaceOnUse"
       x1="498.17999"
       y1="518.04999"
       x2="504.51999"
       y2="422.34" />
    <linearGradient
       inkscape:collect="always"
       xlink:href="#linearGradient4498"
       id="linearGradient4525"
       gradientUnits="userSpaceOnUse"
       x1="447.07001"
       y1="363.17999"
       x2="468.94"
       y2="415.01999" />
    <linearGradient
       inkscape:collect="always"
       xlink:href="#linearGradient5438"
       id="linearGradient4527"
       gradientUnits="userSpaceOnUse"
       gradientTransform="matrix(1.0814,0,0,0.93075,-41.402,32.599)"
       x1="502.41"
       y1="461.66"
       x2="500.62"
       y2="508.72" />
    <linearGradient
       inkscape:collect="always"
       xlink:href="#linearGradient4437-9"
       id="linearGradient4529"
       gradientUnits="userSpaceOnUse"
       x1="505.10001"
       y1="435.44"
       x2="501.06"
       y2="500.88" />
  </defs>
  <sodipodi:namedview
     id="base"
     pagecolor="#ffffff"
     bordercolor="#666666"
     borderopacity="1.0"
     inkscape:pageopacity="0.0"
     inkscape:pageshadow="2"
     inkscape:zoom="1"
     inkscape:cx="139.64015"
     inkscape:cy="63.346073"
     inkscape:document-units="px"
     inkscape:current-layer="layer1"
     showgrid="false"
     fit-margin-top="0"
     fit-margin-left="0"
     fit-margin-right="0"
     fit-margin-bottom="0"
     inkscape:window-width="1904"
     inkscape:window-height="910"
     inkscape:window-x="0"
     inkscape:window-y="0"
     inkscape:window-maximized="1" />
  <metadata
     id="metadata4115">
    <rdf:RDF>
      <cc:Work
         rdf:about="">
        <dc:format>image/svg+xml</dc:format>
        <dc:type
           rdf:resource="http://purl.org/dc/dcmitype/StillImage" />
        <dc:title></dc:title>
      </cc:Work>
    </rdf:RDF>
  </metadata>
  <g
     inkscape:label="Layer 1"
     inkscape:groupmode="layer"
     id="layer1"
     transform="translate(-416.89979,-545.67622)">
    <g
       transform="matrix(0.1878054,0,0,0.1878054,342.39177,470.32776)"
       id="g5553">
      <path
         inkscape:connector-curvature="0"
         transform="matrix(0.76279,0,0,0.61507,94.468,163.01)"
         d="m 690.86,537.7 c 0,62.309 -50.511,112.82 -112.82,112.82 -62.309,0 -112.82,-50.511 -112.82,-112.82 0,-62.309 50.511,-112.82 112.82,-112.82 62.309,0 112.82,50.511 112.82,112.82 z"
         style="opacity:0.33000004;fill:url(#linearGradient4517);filter:url(#filter4946-8)"
         id="path5483" />
      <path
         inkscape:connector-curvature="0"
         transform="matrix(0.76279,0,0,0.61853,94.468,161.15)"
         d="m 690.86,537.7 c 0,62.309 -50.511,112.82 -112.82,112.82 -62.309,0 -112.82,-50.511 -112.82,-112.82 0,-62.309 50.511,-112.82 112.82,-112.82 62.309,0 112.82,50.511 112.82,112.82 z"
         style="opacity:0.33000004;fill:url(#linearGradient4519);filter:url(#filter4946-8)"
         id="path5485" />
      <path
         inkscape:connector-curvature="0"
         transform="matrix(0.76279,0,0,0.61853,94.468,161.15)"
         d="m 690.86,537.7 c 0,62.309 -50.511,112.82 -112.82,112.82 -62.309,0 -112.82,-50.511 -112.82,-112.82 0,-62.309 50.511,-112.82 112.82,-112.82 62.309,0 112.82,50.511 112.82,112.82 z"
         style="opacity:0.33000004;fill:url(#linearGradient4521);filter:url(#filter4946-8)"
         id="path5487" />
      <path
         inkscape:connector-curvature="0"
         transform="matrix(0.67097,0,0,0.61507,189.34,382.88)"
         d="m 585.65,109.24 c 0,19.603 -30.647,35.494 -68.453,35.494 -37.805,0 -68.453,-15.891 -68.453,-35.494 0,-19.603 30.647,-35.494 68.453,-35.494 37.805,0 68.453,15.891 68.453,35.494 z"
         style="opacity:0.33000004;fill:url(#linearGradient4523);filter:url(#filter4946-8)"
         id="path5489" />
      <path
         inkscape:connector-curvature="0"
         transform="matrix(0.76279,0,0,0.61507,154.42,231.62)"
         d="m 494.47,315.89 c -44.645,0.7251 -86.723,31.117 -101.28,73.156 -13.418,36.456 -5.8694,80.074 19.594,109.28 24.455,29.367 64.79,44.667 102.72,37.96 33.187,-5.3866 63.539,-26.592 79.332,-56.172 16.366,-29.631 18.325,-67.009 4.3215,-97.944 -15.134,-34.671 -48.832,-60.707 -86.727,-65.296 -5.9478,-0.83309 -11.957,-1.1546 -17.961,-0.98481 z m 3.3438,2.5312 c 45.748,-0.91102 89.482,31.359 102.22,75.188 11.14,36.156 1.6679,78.096 -24.969,105.03 -24.665,25.855 -62.898,38.153 -98.057,30.666 -38.223,-7.6514 -71.073,-37.463 -81.255,-75.197 -9.7458,-33.907 -1.5074,-72.579 21.812,-98.849 19.939,-22.857 49.702,-37.115 80.251,-36.839 z"
         style="opacity:0.0726;fill:url(#linearGradient3517);filter:url(#filter4363)"
         id="path5491" />
      <path
         inkscape:connector-curvature="0"
         transform="translate(-46.325,-3.9895)"
         d="m 690.86,537.7 c 0,62.309 -50.511,112.82 -112.82,112.82 -62.309,0 -112.82,-50.511 -112.82,-112.82 0,-62.309 50.511,-112.82 112.82,-112.82 62.309,0 112.82,50.511 112.82,112.82 z"
         style="fill:#eaa81c"
         id="path5493" />
      <path
         inkscape:connector-curvature="0"
         transform="matrix(1,0,0,1.0056,-46.325,-7.0103)"
         d="m 690.86,537.7 c 0,62.309 -50.511,112.82 -112.82,112.82 -62.309,0 -112.82,-50.511 -112.82,-112.82 0,-62.309 50.511,-112.82 112.82,-112.82 62.309,0 112.82,50.511 112.82,112.82 z"
         style="fill:url(#radialGradient3525)"
         id="path5495" />
      <path
         inkscape:connector-curvature="0"
         transform="matrix(1,0,0,1.0056,-46.325,-7.0103)"
         d="m 690.86,537.7 c 0,62.309 -50.511,112.82 -112.82,112.82 -62.309,0 -112.82,-50.511 -112.82,-112.82 0,-62.309 50.511,-112.82 112.82,-112.82 62.309,0 112.82,50.511 112.82,112.82 z"
         style="fill:url(#radialGradient12406)"
         id="path5497" />
      <path
         inkscape:connector-curvature="0"
         d="m 526.74,423.45 c -44.645,0.7251 -86.723,31.117 -101.28,73.156 -13.418,36.456 -5.8694,80.074 19.594,109.28 24.455,29.367 64.79,44.667 102.72,37.96 33.187,-5.3866 63.539,-26.592 79.332,-56.172 16.366,-29.631 18.325,-67.009 4.3215,-97.944 -15.134,-34.671 -48.832,-60.707 -86.727,-65.296 -5.9478,-0.83309 -11.957,-1.1546 -17.961,-0.98481 z m 3.3438,2.5312 c 45.748,-0.91102 89.482,31.359 102.22,75.188 11.14,36.156 1.6679,78.096 -24.969,105.03 -24.665,25.855 -62.898,38.153 -98.057,30.666 -38.223,-7.6514 -71.073,-37.463 -81.255,-75.197 -9.7458,-33.907 -1.5074,-72.579 21.812,-98.849 19.939,-22.857 49.702,-37.115 80.251,-36.839 z"
         style="opacity:0.22000002;fill:#2b1100;filter:url(#filter4363)"
         id="path5499" />
      <path
         inkscape:connector-curvature="0"
         d="m 528.35,510.03 c 0,22.053 -2.3795,34.443 -26.304,34.226 -22.026,-0.19938 -28.205,-12.173 -28.205,-34.226 0,-22.053 12.202,-39.931 27.254,-39.931 15.052,0 27.254,17.878 27.254,39.931 z"
         style="fill:#e9a71c"
         id="path5501" />
      <path
         inkscape:connector-curvature="0"
         d="m 507.83,542.4 c 16.963,-2.5728 18.43,-14.522 18.654,-25.079 0.65554,-13.587 -5.4938,-30.588 -23.065,-34.631 -14.854,-0.82979 -24.344,12.133 -26.346,22.996 -4.1347,15.462 3.3299,36.622 17.297,36.572 1.7174,0.34745 11.385,0.0327 13.46,0.14202 z"
         style="fill:#999999"
         id="path5503" />
      <path
         inkscape:connector-curvature="0"
         d="m 506.32,542.26 c 16.567,-0.1749 19.935,-12.008 20.159,-24.632 0.65554,-13.419 -5.4938,-30.209 -23.065,-34.202 -14.854,-0.8195 -24.344,11.983 -26.346,22.711 -4.1347,15.271 2.5376,35.898 17.772,35.983 1.7174,0.34315 9.8001,0.23508 11.48,0.14025 z"
         style="fill:url(#radialGradient5604)"
         id="path5505" />
      <g
         transform="translate(0,5.8263)"
         id="g5507">
        <path
           inkscape:connector-curvature="0"
           transform="matrix(1.1739,0,0,1,-51.734,109.87)"
           d="m 485.51,400.16 c 0,10.151 -6.5267,18.381 -14.578,18.381 -8.0511,0 -14.578,-8.2294 -14.578,-18.381 0,-10.151 6.5267,-18.381 14.578,-18.381 8.0511,0 14.578,8.2294 14.578,18.381 z"
           style="fill:#000000"
           id="path5509" />
        <path
           inkscape:connector-curvature="0"
           transform="matrix(0.47826,0,0,0.62963,278.4,253.47)"
           d="m 485.51,400.16 c 0,10.151 -6.5267,18.381 -14.578,18.381 -8.0511,0 -14.578,-8.2294 -14.578,-18.381 0,-10.151 6.5267,-18.381 14.578,-18.381 8.0511,0 14.578,8.2294 14.578,18.381 z"
           style="fill:url(#linearGradient4525)"
           id="path5511" />
      </g>
      <path
         inkscape:connector-curvature="0"
         d="m 595.58,510.03 c 0,22.053 -2.3795,34.443 -26.304,34.226 -22.026,-0.19938 -28.205,-12.173 -28.205,-34.226 0,-22.053 12.202,-39.931 27.254,-39.931 15.052,0 27.254,17.878 27.254,39.931 z"
         style="fill:#e9a71c"
         id="path5513" />
      <path
         inkscape:connector-curvature="0"
         d="m 570.02,544.22 c 17.598,-2.6423 24.718,-13.728 24.95,-26.856 0.68007,-13.954 -5.6995,-31.415 -23.929,-35.567 -15.41,-0.8522 -25.256,12.461 -27.332,23.617 -4.2895,15.88 -0.67507,31.541 19.075,38.379 1.7817,0.35684 3.9006,-2.2771 7.2354,0.42705 z"
         style="fill:url(#linearGradient5608)"
         id="path5515" />
      <path
         inkscape:connector-curvature="0"
         d="m 575.05,542.4 c 16.963,-2.5825 18.43,-14.577 18.654,-25.173 0.65554,-13.638 -5.4938,-30.703 -23.065,-34.761 -14.854,-0.8329 -24.344,12.179 -26.346,23.082 -4.1347,15.52 3.3299,36.759 17.297,36.709 1.7174,0.34875 11.385,0.0328 13.46,0.14255 z"
         style="fill:#999999"
         id="path5517" />
      <path
         inkscape:connector-curvature="0"
         d="m 573.55,542.26 c 16.567,-0.1764 19.935,-12.111 20.159,-24.844 0.65554,-13.534 -5.4938,-30.468 -23.065,-34.495 -14.854,-0.82653 -24.344,12.086 -26.346,22.906 -4.1347,15.401 2.5376,36.205 17.772,36.292 1.7174,0.34609 9.8001,0.23709 11.48,0.14146 z"
         style="fill:url(#radialGradient5610)"
         id="path5519" />
      <path
         inkscape:connector-curvature="0"
         transform="matrix(1.1739,0,0,1,15.493,109.87)"
         d="m 485.51,400.16 c 0,10.151 -6.5267,18.381 -14.578,18.381 -8.0511,0 -14.578,-8.2294 -14.578,-18.381 0,-10.151 6.5267,-18.381 14.578,-18.381 8.0511,0 14.578,8.2294 14.578,18.381 z"
         style="fill:#000000"
         id="path5521" />
      <path
         inkscape:connector-curvature="0"
         transform="matrix(0.47826,0,0,0.62963,345.63,253.47)"
         d="m 485.51,400.16 c 0,10.151 -6.5267,18.381 -14.578,18.381 -8.0511,0 -14.578,-8.2294 -14.578,-18.381 0,-10.151 6.5267,-18.381 14.578,-18.381 8.0511,0 14.578,8.2294 14.578,18.381 z"
         style="fill:url(#linearGradient3527)"
         id="path5523" />
      <path
         inkscape:connector-curvature="0"
         d="m 575.41,602.22 c 0,-7.9272 -4.6398,-15.197 -11.885,-20.459 -7.2451,-5.2617 -17.196,-8.5993 -28.31,-8.5993 -11.114,0 -21.309,3.3218 -28.79,8.5756 -7.4804,5.2538 -12.383,12.519 -12.383,20.482 l 2.0116,0 c 0,-6.5913 4.0914,-8.4381 11.211,-13.439 7.1198,-5.0006 17.031,-8.2921 27.83,-8.2921 10.799,0 20.438,3.2758 27.313,8.2685 6.8747,4.9927 10.99,6.8348 10.99,13.462 z"
         style="color:#000000;text-indent:0;text-transform:none;block-progression:tb;fill:#000000"
         id="path5525" />
      <path
         inkscape:connector-curvature="0"
         d="m 471.43,473.14 c 1.5846,-10.141 16.841,-16.992 27.751,-16.992 10.91,0 14.706,3.1522 14.547,5.2121 0,0 -0.39124,6.3107 -6.0613,2.7294 -3.8596,-2.4378 -14.095,-3.5908 -24.245,3.6098 -5.6813,4.0306 -4.2429,7.9415 -7.2735,7.9415 -3.0306,0 -4.4014,-0.91603 -4.7183,-2.5006 z"
         style="fill:#000000;stroke:#000000;stroke-width:0.52183998px"
         id="path5527" />
      <path
         inkscape:connector-curvature="0"
         d="m 498.55,457.13 c -9.6741,0.553 -21.032,4.29 -24.688,14.094 2.3987,1.5748 2.9776,-2.4698 4.2188,-3.5938 7.2654,-9.0591 21.313,-12.133 31.75,-6.8438 2.0932,0.32042 0.1104,-2.6834 -1.1875,-2.4688 -3.2327,-0.68353 -6.6947,-1.4631 -10.094,-1.1875 z"
         style="fill:url(#linearGradient5614);filter:url(#filter4798)"
         id="path5529" />
      <path
         inkscape:connector-curvature="0"
         d="m 596.76,473.77 c -1.5846,-10.141 -16.841,-16.992 -27.751,-16.992 -10.91,0 -14.706,3.1522 -14.547,5.2121 0,0 0.39124,6.3107 6.0613,2.7294 3.8596,-2.4378 14.095,-3.5908 24.245,3.6098 5.6813,4.0306 4.2429,7.9415 7.2735,7.9415 3.0306,0 4.4014,-0.91603 4.7183,-2.5006 z"
         style="fill:#000000;stroke:#000000;stroke-width:0.52183998px"
         id="path5531" />
      <path
         inkscape:connector-curvature="0"
         transform="matrix(-1,0,0,1,1035.9,108.2)"
         d="m 466.28,349.57 c -9.6741,0.553 -21.032,4.29 -24.688,14.094 2.3987,1.5748 2.9776,-2.4698 4.2188,-3.5938 7.2654,-9.0591 21.313,-12.133 31.75,-6.8438 2.0932,0.32042 0.1104,-2.6834 -1.1875,-2.4688 -3.2327,-0.68353 -6.6947,-1.4631 -10.094,-1.1875 z"
         style="fill:url(#linearGradient5263);filter:url(#filter4798)"
         id="path5533" />
      <g
         transform="matrix(1,0,0,0.89984,0,47.265)"
         id="g5535">
        <path
           inkscape:connector-curvature="0"
           d="m 502.75,508.37 c 34.935,-2.2832 17.087,-10.502 17.276,-18.402 -5.273,-8.3974 -2.9568,-13.975 -17.79,-16.473 -12.539,-0.51283 -19.205,4.8097 -20.895,11.523 1.4397,10.228 -17.58,23.157 15.521,23.095 1.4497,0.21473 3.0618,0.1423 5.8873,0.25699 z"
           style="fill:#e9a71c"
           id="path5537" />
        <path
           inkscape:connector-curvature="0"
           d="m 502.27,509.94 c 30.024,-4.7128 24.778,-11.183 21.954,-16.836 -6.1869,-12.557 -11.073,-19.694 -22.267,-21.176 -11.863,-0.53423 -17.376,8.2599 -21.384,14.581 -3.7744,9.9549 -13.68,20.659 15.33,23.163 1.5677,0.22369 3.4322,-1.4275 6.3666,0.26772 z"
           style="fill:url(#linearGradient4527)"
           id="path5539" />
        <path
           inkscape:connector-curvature="0"
           d="m 502.27,509.94 c 30.024,-4.7128 24.778,-11.183 21.954,-16.836 -6.1869,-12.557 -11.073,-19.694 -22.267,-21.176 -11.863,-0.53423 -17.376,8.2599 -21.384,14.581 -3.7744,9.9549 -13.68,20.659 15.33,23.163 1.5677,0.22369 3.4322,-1.4275 6.3666,0.26772 z"
           style="fill:url(#linearGradient4529)"
           id="path5541" />
      </g>
      <g
         transform="matrix(1.0044,0,0,0.92341,65.12,36.144)"
         id="g5543">
        <path
           inkscape:connector-curvature="0"
           d="m 502.75,508.37 c 34.935,-2.2832 17.087,-10.502 17.276,-18.402 -5.273,-8.3974 -2.9568,-13.975 -17.79,-16.473 -12.539,-0.51283 -19.205,4.8097 -20.895,11.523 1.4397,10.228 -17.58,23.157 15.521,23.095 1.4497,0.21473 3.0618,0.1423 5.8873,0.25699 z"
           style="fill:#e9a71c"
           id="path5545" />
        <path
           inkscape:connector-curvature="0"
           d="m 502.27,509.94 c 30.024,-4.7128 24.778,-11.183 21.954,-16.836 -6.1869,-12.557 -11.073,-19.694 -22.267,-21.176 -11.863,-0.53423 -17.376,8.2599 -21.384,14.581 -3.7744,9.9549 -13.68,20.659 15.33,23.163 1.5677,0.22369 3.4322,-1.4275 6.3666,0.26772 z"
           style="fill:url(#linearGradient3529)"
           id="path5547" />
        <path
           inkscape:connector-curvature="0"
           d="m 502.27,509.94 c 30.024,-4.7128 24.778,-11.183 21.954,-16.836 -6.1869,-12.557 -11.073,-19.694 -22.267,-21.176 -11.863,-0.53423 -17.376,8.2599 -21.384,14.581 -3.7744,9.9549 -13.68,20.659 15.33,23.163 1.5677,0.22369 3.4322,-1.4275 6.3666,0.26772 z"
           style="fill:url(#linearGradient3531)"
           id="path5549" />
      </g>
      <path
         inkscape:connector-curvature="0"
         transform="matrix(0.87963,0,0,1,78.045,353.49)"
         d="m 585.65,109.24 c 0,19.603 -30.647,35.494 -68.453,35.494 -37.805,0 -68.453,-15.891 -68.453,-35.494 0,-19.603 30.647,-35.494 68.453,-35.494 37.805,0 68.453,15.891 68.453,35.494 z"
         style="fill:url(#linearGradient12410)"
         id="path5551" />
    </g>
  </g>
</svg>
