<?xml version="1.0" encoding="UTF-8" standalone="no"?>
<!-- Created with Inkscape (http://www.inkscape.org/) -->

<svg
   xmlns:dc="http://purl.org/dc/elements/1.1/"
   xmlns:cc="http://creativecommons.org/ns#"
   xmlns:rdf="http://www.w3.org/1999/02/22-rdf-syntax-ns#"
   xmlns:svg="http://www.w3.org/2000/svg"
   xmlns="http://www.w3.org/2000/svg"
   xmlns:xlink="http://www.w3.org/1999/xlink"
   xmlns:sodipodi="http://sodipodi.sourceforge.net/DTD/sodipodi-0.dtd"
   xmlns:inkscape="http://www.inkscape.org/namespaces/inkscape"
   width="14.111112mm"
   height="14.120163mm"
   viewBox="0 0 50.000002 50.032073"
   id="svg3593"
   version="1.1"
   inkscape:version="0.91 r13725"
   sodipodi:docname="very-sad.svg">
  <defs
     id="defs3595">
    <radialGradient
       inkscape:collect="always"
       xlink:href="#linearGradient4437"
       id="radialGradient3416"
       gradientUnits="userSpaceOnUse"
       gradientTransform="matrix(0.64399,1.2691,-1.3033,0.66139,827.1,-583.91)"
       cx="559.28998"
       cy="467.44"
       r="112.82" />
    <linearGradient
       id="linearGradient4437">
      <stop
         id="stop4439"
         style="stop-color:#ffff00"
         offset="0" />
      <stop
         id="stop4441"
         style="stop-color:#ffff00;stop-opacity:0"
         offset="1" />
    </linearGradient>
    <radialGradient
       inkscape:collect="always"
       xlink:href="#linearGradient4437"
       id="radialGradient3418"
       gradientUnits="userSpaceOnUse"
       gradientTransform="matrix(0.64399,1.2691,-1.3033,0.66139,827.1,-583.91)"
       cx="559.28998"
       cy="467.44"
       r="112.82" />
    <filter
       style="color-interpolation-filters:sRGB"
       id="filter4363">
      <feGaussianBlur
         id="feGaussianBlur4365"
         stdDeviation="5.5483248" />
    </filter>
    <linearGradient
       inkscape:collect="always"
       xlink:href="#linearGradient4557"
       id="linearGradient3420"
       gradientUnits="userSpaceOnUse"
       gradientTransform="matrix(-1.4095,0,0,-1.319,-517.56,1879)"
       x1="467.76001"
       y1="416.01001"
       x2="472.82999"
       y2="357.70001" />
    <linearGradient
       id="linearGradient4557">
      <stop
         id="stop4559"
         style="stop-color:#ffcc00"
         offset="0" />
      <stop
         id="stop4561"
         style="stop-color:#e9a71c;stop-opacity:0"
         offset="1" />
    </linearGradient>
    <radialGradient
       inkscape:collect="always"
       xlink:href="#linearGradient4585"
       id="radialGradient3422"
       gradientUnits="userSpaceOnUse"
       gradientTransform="matrix(3.172,1.1554,-1.2488,3.4283,-2148.9,-571.99)"
       cx="463.95999"
       cy="402.79001"
       r="25.4" />
    <linearGradient
       id="linearGradient4585">
      <stop
         id="stop4587"
         style="stop-color:#ffffff"
         offset="0" />
      <stop
         id="stop4589"
         style="stop-color:#ffffff;stop-opacity:0"
         offset="1" />
    </linearGradient>
    <linearGradient
       inkscape:collect="always"
       xlink:href="#linearGradient4585"
       id="linearGradient3424"
       gradientUnits="userSpaceOnUse"
       x1="447.07001"
       y1="363.17999"
       x2="468.94"
       y2="415.01999" />
    <linearGradient
       inkscape:collect="always"
       xlink:href="#linearGradient4557"
       id="linearGradient3426"
       gradientUnits="userSpaceOnUse"
       gradientTransform="matrix(-1.5217,0,0,-1.4239,-395.09,1922.3)"
       x1="467.76001"
       y1="416.01001"
       x2="472.82999"
       y2="357.70001" />
    <radialGradient
       inkscape:collect="always"
       xlink:href="#linearGradient4585"
       id="radialGradient3428"
       gradientUnits="userSpaceOnUse"
       gradientTransform="matrix(3.4243,1.2473,-1.3482,3.701,-2156.1,-723.65)"
       cx="463.95999"
       cy="402.79001"
       r="25.4" />
    <linearGradient
       id="linearGradient14991"
       y2="1421.1"
       gradientUnits="userSpaceOnUse"
       x2="-1428.1"
       gradientTransform="matrix(1.2286,0,0,1.2656,340.96,-367.69)"
       y1="1437.1"
       x1="-1428.8">
      <stop
         id="stop14243"
         style="stop-color:#d40000"
         offset="0" />
      <stop
         id="stop14245"
         style="stop-color:#d40000;stop-opacity:0"
         offset="1" />
    </linearGradient>
    <linearGradient
       id="linearGradient14993"
       y2="1448.7"
       gradientUnits="userSpaceOnUse"
       x2="-1406.6"
       y1="1468"
       x1="-1405.2">
      <stop
         id="stop14275"
         style="stop-color:#cccccc"
         offset="0" />
      <stop
         id="stop14277"
         style="stop-color:#cccccc;stop-opacity:0"
         offset="1" />
    </linearGradient>
    <linearGradient
       id="linearGradient14995"
       y2="1412.8"
       gradientUnits="userSpaceOnUse"
       x2="-1414.6"
       gradientTransform="matrix(0.96622,0,0,0.877,-48.143,172.09)"
       y1="1395.3"
       x1="-1414.2">
      <stop
         id="stop14285"
         style="stop-color:#999999"
         offset="0" />
      <stop
         id="stop14287"
         style="stop-color:#999999;stop-opacity:0"
         offset="1" />
    </linearGradient>
    <linearGradient
       inkscape:collect="always"
       xlink:href="#linearGradient4585"
       id="linearGradient3432"
       gradientUnits="userSpaceOnUse"
       x1="524.79999"
       y1="69.941002"
       x2="517.20001"
       y2="159.94" />
    <linearGradient
       inkscape:collect="always"
       xlink:href="#linearGradient4585"
       id="linearGradient3736"
       gradientUnits="userSpaceOnUse"
       x1="447.07001"
       y1="363.17999"
       x2="468.94"
       y2="415.01999" />
  </defs>
  <sodipodi:namedview
     id="base"
     pagecolor="#ffffff"
     bordercolor="#666666"
     borderopacity="1.0"
     inkscape:pageopacity="0.0"
     inkscape:pageshadow="2"
     inkscape:zoom="0.35"
     inkscape:cx="302.06785"
     inkscape:cy="132.93694"
     inkscape:document-units="px"
     inkscape:current-layer="layer1"
     showgrid="false"
     fit-margin-top="0"
     fit-margin-left="0"
     fit-margin-right="0"
     fit-margin-bottom="0"
     inkscape:window-width="1904"
     inkscape:window-height="910"
     inkscape:window-x="0"
     inkscape:window-y="0"
     inkscape:window-maximized="1" />
  <metadata
     id="metadata3598">
    <rdf:RDF>
      <cc:Work
         rdf:about="">
        <dc:format>image/svg+xml</dc:format>
        <dc:type
           rdf:resource="http://purl.org/dc/dcmitype/StillImage" />
        <dc:title></dc:title>
      </cc:Work>
    </rdf:RDF>
  </metadata>
  <g
     inkscape:label="Layer 1"
     inkscape:groupmode="layer"
     id="layer1"
     transform="translate(-72.932152,-615.26707)">
    <g
       transform="matrix(0.18780542,0,0,0.18780542,360.87731,382.99779)"
       id="g14946">
      <path
         inkscape:connector-curvature="0"
         transform="translate(-1976.2,831.57)"
         d="m 690.86,537.7 c 0,62.309 -50.511,112.82 -112.82,112.82 -62.309,0 -112.82,-50.511 -112.82,-112.82 0,-62.309 50.511,-112.82 112.82,-112.82 62.309,0 112.82,50.511 112.82,112.82 z"
         style="fill:#eaa81c"
         id="path14143" />
      <path
         inkscape:connector-curvature="0"
         transform="matrix(1,0,0,1.0056,-1976.2,828.55)"
         d="m 690.86,537.7 c 0,62.309 -50.511,112.82 -112.82,112.82 -62.309,0 -112.82,-50.511 -112.82,-112.82 0,-62.309 50.511,-112.82 112.82,-112.82 62.309,0 112.82,50.511 112.82,112.82 z"
         style="fill:url(#radialGradient3416)"
         id="path14145" />
      <path
         inkscape:connector-curvature="0"
         transform="matrix(1,0,0,1.0056,-1976.2,828.55)"
         d="m 690.86,537.7 c 0,62.309 -50.511,112.82 -112.82,112.82 -62.309,0 -112.82,-50.511 -112.82,-112.82 0,-62.309 50.511,-112.82 112.82,-112.82 62.309,0 112.82,50.511 112.82,112.82 z"
         style="fill:url(#radialGradient3418)"
         id="path14147" />
      <path
         inkscape:connector-curvature="0"
         d="m -1403.2,1259 c -44.645,0.7251 -86.723,31.117 -101.28,73.156 -13.418,36.456 -5.8693,80.074 19.594,109.28 24.455,29.367 64.79,44.667 102.72,37.96 33.187,-5.3866 63.539,-26.592 79.332,-56.172 16.366,-29.631 18.325,-67.009 4.3215,-97.944 -15.134,-34.671 -48.832,-60.707 -86.727,-65.296 -5.9478,-0.8331 -11.957,-1.1546 -17.961,-0.9849 z m 3.3437,2.5313 c 45.748,-0.911 89.482,31.358 102.22,75.188 11.14,36.156 1.6679,78.096 -24.969,105.03 -24.664,25.855 -62.898,38.153 -98.057,30.666 -38.223,-7.6514 -71.073,-37.463 -81.255,-75.197 -9.7458,-33.907 -1.5074,-72.579 21.812,-98.849 19.939,-22.857 49.702,-37.115 80.251,-36.839 z"
         style="opacity:0.22000002;fill:#2b1100;filter:url(#filter4363)"
         id="path14151" />
      <g
         transform="matrix(0.78488,0,0,0.59719,-512.91,545.63)"
         id="g14153">
        <path
           inkscape:connector-curvature="0"
           transform="matrix(1.1892,0,0,1.1892,-1731.9,866.88)"
           d="m 494.38,402.7 c 0,22.053 -12.202,39.931 -27.254,39.931 -15.052,0 -27.254,-17.878 -27.254,-39.931 0,-22.053 12.202,-39.931 27.254,-39.931 15.052,0 27.254,17.878 27.254,39.931 z"
           style="fill:#e9a71c"
           id="path14155" />
        <path
           inkscape:connector-curvature="0"
           d="m -1174.7,1393.9 c 20.927,-3.5706 29.676,-25.993 29.953,-43.733 0.8088,-18.856 -6.7775,-42.45 -28.455,-48.061 -18.325,-1.1516 -30.033,16.838 -32.502,31.914 -5.1009,21.458 1.1758,50.064 24.662,59.303 2.1187,0.4822 4.2709,0.7103 6.343,0.5771 z"
           style="fill:url(#linearGradient3420)"
           id="path14157" />
        <path
           inkscape:connector-curvature="0"
           d="m -1175.1,1393.1 c 20.172,-3.5413 28.605,-25.78 28.872,-43.374 0.7795,-18.702 -6.5331,-42.102 -27.428,-47.667 -17.664,-1.1422 -28.949,16.7 -31.329,31.652 -4.9168,21.282 1.1334,49.653 23.772,58.817 2.0423,0.4783 4.1168,0.7045 6.1141,0.5724 z"
           style="fill:#999999"
           id="path14159" />
        <path
           inkscape:connector-curvature="0"
           d="m -1175.1,1393.1 c 20.172,-3.5413 28.605,-25.78 28.872,-43.374 0.7795,-18.702 -6.5331,-42.102 -27.428,-47.667 -17.664,-1.1422 -28.949,16.7 -31.329,31.652 -4.9168,21.282 1.1334,49.653 23.772,58.817 2.0423,0.4783 4.1168,0.7045 6.1141,0.5724 z"
           style="fill:url(#radialGradient3422)"
           id="path14161" />
        <path
           inkscape:connector-curvature="0"
           transform="matrix(1.396,0,0,1.1892,-1833.9,869.9)"
           d="m 485.51,400.16 c 0,10.151 -6.5267,18.381 -14.578,18.381 -8.0511,0 -14.578,-8.2294 -14.578,-18.381 0,-10.151 6.5267,-18.381 14.578,-18.381 8.0511,0 14.578,8.2294 14.578,18.381 z"
           style="fill:#000000"
           id="path14163" />
        <path
           inkscape:connector-curvature="0"
           transform="matrix(0.56873,0,0,0.74873,-1453.5,1045.5)"
           d="m 485.51,400.16 c 0,10.151 -6.5267,18.381 -14.578,18.381 -8.0511,0 -14.578,-8.2294 -14.578,-18.381 0,-10.151 6.5267,-18.381 14.578,-18.381 8.0511,0 14.578,8.2294 14.578,18.381 z"
           style="fill:url(#linearGradient3736)"
           id="path14165" />
      </g>
      <g
         transform="matrix(0.72827,0,0,0.56813,-567.61,582.63)"
         id="g14167">
        <path
           inkscape:connector-curvature="0"
           transform="matrix(1.2837,0,0,1.2837,-1706.1,829.67)"
           d="m 494.38,402.7 c 0,22.053 -12.202,39.931 -27.254,39.931 -15.052,0 -27.254,-17.878 -27.254,-39.931 0,-22.053 12.202,-39.931 27.254,-39.931 15.052,0 27.254,17.878 27.254,39.931 z"
           style="fill:#e9a71c"
           id="path14169" />
        <path
           inkscape:connector-curvature="0"
           d="m -1104.5,1398.6 c 22.591,-3.8546 32.036,-28.061 32.335,-47.211 0.8731,-20.356 -7.3166,-45.826 -30.718,-51.884 -19.783,-1.2432 -32.422,18.178 -35.087,34.452 -5.5066,23.165 1.2693,54.046 26.623,64.02 2.2872,0.5205 4.6106,0.7668 6.8475,0.623 z"
           style="fill:url(#linearGradient3426)"
           id="path14171" />
        <path
           inkscape:connector-curvature="0"
           d="m -1105,1397.7 c 21.776,-3.8229 30.88,-27.831 31.168,-46.824 0.8415,-20.189 -7.0527,-45.45 -29.61,-51.458 -19.069,-1.233 -31.252,18.029 -33.821,34.169 -5.3079,22.975 1.2235,53.602 25.662,63.495 2.2047,0.5162 4.4442,0.7605 6.6003,0.6178 z"
           style="fill:#999999"
           id="path14173" />
        <path
           inkscape:connector-curvature="0"
           d="m -1105,1397.7 c 21.776,-3.8229 30.88,-27.831 31.168,-46.824 0.8415,-20.189 -7.0527,-45.45 -29.61,-51.458 -19.069,-1.233 -31.252,18.029 -33.821,34.169 -5.3079,22.975 1.2235,53.602 25.662,63.495 2.2047,0.5162 4.4442,0.7605 6.6003,0.6178 z"
           style="fill:url(#radialGradient3428)"
           id="path14175" />
        <path
           inkscape:connector-curvature="0"
           transform="matrix(1.507,0,0,1.2837,-1816.1,832.92)"
           d="m 485.51,400.16 c 0,10.151 -6.5267,18.381 -14.578,18.381 -8.0511,0 -14.578,-8.2294 -14.578,-18.381 0,-10.151 6.5267,-18.381 14.578,-18.381 8.0511,0 14.578,8.2294 14.578,18.381 z"
           style="fill:#000000"
           id="path14177" />
        <path
           inkscape:connector-curvature="0"
           transform="matrix(0.61396,0,0,0.80828,-1406.1,1021.3)"
           d="m 485.51,400.16 c 0,10.151 -6.5267,18.381 -14.578,18.381 -8.0511,0 -14.578,-8.2294 -14.578,-18.381 0,-10.151 6.5267,-18.381 14.578,-18.381 8.0511,0 14.578,8.2294 14.578,18.381 z"
           style="fill:url(#linearGradient3424)"
           id="path14179" />
      </g>
      <path
         inkscape:connector-curvature="0"
         d="m -1383.9,1309.2 c 4.0925,-0.4797 6.4823,-0.1952 9.0055,-0.2994 2.2273,0.3484 5.8582,0.2256 7.9573,0.9841 3.5016,0.7441 4.591,1.5771 7.371,2.4648 2.1247,0.8526 4.4534,2.2951 6.7104,3.7478 2.0015,1.4975 2.2553,1.7753 3.6506,2.7462 3.1963,3.1844 6.7751,6.2016 5.2162,8.0918 -0.2405,0.056 -0.456,0.2399 -0.7665,-0.062 -0.031,-0.015 -0.7705,-0.6211 -1.7786,-1.3072 -1.7672,-1.1416 -1.8422,-1.3923 -4.098,-2.5969 -1.8938,-1.0138 -3.6624,-1.8343 -5.9148,-2.7298 -2.8319,-0.9062 -4.9466,-1.9176 -8.3937,-2.398 -4.6452,-0.7652 -9.1871,-0.9667 -11.356,-1.3051 -2.435,-0.7685 -6.4339,-0.3049 -8.901,-0.9426 -2.9522,-0.893 -2.0801,-5.2499 1.2971,-6.3937 z"
         style="fill:#000000"
         id="path14181" />
      <path
         inkscape:connector-curvature="0"
         d="m -1417.4,1312.6 c -4.0543,-0.7362 -6.4572,-0.6027 -8.9688,-0.8655 -2.2448,0.2076 -5.8608,-0.1435 -8.0035,0.4814 -3.5415,0.5223 -4.6811,1.2851 -7.5115,1.9961 -2.1742,0.7172 -4.589,2.0102 -6.933,3.3181 -2.0917,1.3685 -2.3625,1.6298 -3.8161,2.5109 -3.3904,2.9771 -7.152,5.7631 -5.7151,7.7475 0.2364,0.071 0.44,0.2682 0.7689,-0.013 0.032,-0.014 0.8081,-0.5714 1.8573,-1.1928 1.8356,-1.0281 1.9261,-1.2736 4.2533,-2.3338 1.9539,-0.8926 3.7706,-1.6002 6.0749,-2.3522 2.8833,-0.7262 5.0574,-1.6025 8.5279,-1.865 4.6842,-0.4713 9.2298,-0.3867 11.415,-0.5879 2.4785,-0.6137 6.4403,0.1006 8.9427,-0.3806 3.0025,-0.7054 2.4063,-5.1086 -0.8922,-6.4627 z"
         style="fill:#000000"
         id="path14183" />
      <path
         inkscape:connector-curvature="0"
         d="m -1462.9,1435.8 c 0,0 16.558,-32.155 42.524,-28.63 26.4,-5.3577 74.674,45.386 74.674,45.386 0,0 2.9266,2.4181 0.9484,3.071 -15.764,5.2036 -64.179,-11.995 -80.527,-10.635 -16.348,1.3603 -40.819,5.9699 -42.504,4.081 -1.3224,-1.4824 4.884,-13.273 4.884,-13.273 z"
         style="fill:#000000"
         id="path14191" />
      <path
         inkscape:connector-curvature="0"
         d="m -1458.7,1429.7 c 0,0 12.41,-26.114 38.481,-22.556 26.506,-5.4085 72.626,43.478 72.626,43.478 0,0 5.6132,5.5303 4.5187,5.6885 -16.468,2.3804 -65.655,-12.359 -82.069,-10.986 -16.414,1.3732 -34.521,7.0271 -42.676,4.1197 -3.0194,-1.0765 9.1185,-19.744 9.1185,-19.744 z"
         style="fill:url(#linearGradient14991)"
         id="path14239" />
      <path
         inkscape:connector-curvature="0"
         d="m -1449,1417.3 c 0,0 -14.789,13.908 -2.361,8.0234 18.338,-8.6828 81.98,-0.2793 81.79,4.6654 0.3251,-0.088 -24.791,-21.299 -34.315,-22.987 -15.01,-2.6606 -24.861,-0.7804 -27.736,-0.4406 -4.2794,0.5057 -18.434,9.8132 -17.377,10.739 z"
         style="fill:#ffffff"
         id="path14267" />
      <path
         inkscape:connector-curvature="0"
         d="m -1468.7,1449.1 c 0,0 28.34,-11.1 54.082,-11.336 31.173,-0.286 42.51,5.9041 59.987,12.989 7.0582,2.8614 12.753,5.9042 12.753,5.9042 0,0 -8.7689,2.3211 -40.268,-4.752 -14.227,-2.8054 -20.608,-4.8449 -31.763,-5.8756 -3.3064,0.4724 -15.823,-0.7085 -26.687,1.6532 -10.864,2.3617 -21.727,3.3063 -23.617,2.3617 -2.3617,0.4723 -4.4872,-0.9447 -4.4872,-0.9447 z"
         style="fill:#ffffff"
         id="path14269" />
      <path
         inkscape:connector-curvature="0"
         d="m -1468.7,1449.1 c 0,0 28.34,-11.1 54.082,-11.336 31.173,-0.286 42.51,5.9041 59.987,12.989 7.0582,2.8614 12.753,5.9042 12.753,5.9042 0,0 -19.624,0.9852 -39.934,-4.9189 -13.225,-3.3064 -28.791,-6.181 -32.097,-5.7087 -3.3064,0.4724 -15.823,-0.7085 -26.687,1.6532 -10.864,2.3617 -21.727,3.3063 -23.617,2.3617 -2.3617,0.4723 -4.4872,-0.9447 -4.4872,-0.9447 z"
         style="fill:url(#linearGradient14993)"
         id="path14271" />
      <path
         inkscape:connector-curvature="0"
         d="m -1448.1,1415.7 c 0,0 -9.4371,6.9484 -0.2333,4.431 18.914,-5.1735 77.224,1.8196 77.036,5.9041 0,0 -23.797,-17.265 -31.942,-18.842 -9.5494,-1.8484 -23.576,-1.3769 -26.415,-1.0963 -4.2249,0.4178 -19.49,8.8385 -18.447,9.6029 z"
         style="fill:url(#linearGradient14995)"
         id="path14281" />
      <path
         inkscape:connector-curvature="0"
         transform="matrix(0.99003,0,0,1.1065,-1910.9,1181.2)"
         d="m 585.65,109.24 c 0,19.603 -30.647,35.494 -68.453,35.494 -37.805,0 -68.453,-15.891 -68.453,-35.494 0,-19.603 30.647,-35.494 68.453,-35.494 37.805,0 68.453,15.891 68.453,35.494 z"
         style="fill:url(#linearGradient3432)"
         id="path14149" />
    </g>
  </g>
</svg>
